{
  "type": "tardis:drafting_table",
  "keys": {
    "x": {
      "item": "tardis:xion"
    }
  },
  "pattern": [
    "xx ",
    "xx ",
    "   "
  ],
  "result": {
    "item": "tardis:xion_block"
  },
  "tools": [
    {
      "time": 20,
      "tool": "welding"
    }
  ]
}