{
	"credit": "Made with Blockbench",
	"textures": {
		"0": "tardis:block/xion_crystal",
		"particle": "tardis:block/xion_crystal"
	},
	"elements": [
		{
			"from": [2, -1.66421, 4.34315],
			"to": [6, 2.33579, 8.34315],
			"rotation": {"angle": 22.5, "axis": "y", "origin": [2, 0.33579, 4.34315]},
			"faces": {
				"north": {"uv": [5, 5, 9, 9], "texture": "#0"},
				"east": {"uv": [5, 5, 9, 9], "texture": "#0"},
				"south": {"uv": [5, 5, 9, 9], "texture": "#0"},
				"west": {"uv": [5, 5, 9, 9], "texture": "#0"},
				"up": {"uv": [5, 5, 9, 9], "texture": "#0"},
				"down": {"uv": [5, 5, 9, 9], "texture": "#0"}
			}
		},
		{
			"from": [1, -1.66421, 5.34315],
			"to": [3, 0.33579, 7.34315],
			"rotation": {"angle": 22.5, "axis": "y", "origin": [3, 1.33579, 5.34315]},
			"faces": {
				"north": {"uv": [4, 4, 6, 6], "rotation": 180, "texture": "#0"},
				"east": {"uv": [4, 4, 6, 6], "rotation": 180, "texture": "#0"},
				"south": {"uv": [4, 4, 6, 6], "rotation": 180, "texture": "#0"},
				"west": {"uv": [4, 4, 6, 6], "rotation": 180, "texture": "#0"},
				"up": {"uv": [5, 5, 7, 7], "rotation": 180, "texture": "#0"},
				"down": {"uv": [5, 5, 7, 7], "rotation": 180, "texture": "#0"}
			}
		},
		{
			"from": [10, -0.91421, 2.84315],
			"to": [12, 1.08579, 4.84315],
			"rotation": {"angle": 22.5, "axis": "y", "origin": [12, 2.08579, 2.84315]},
			"faces": {
				"north": {"uv": [4, 4, 6, 6], "rotation": 180, "texture": "#0"},
				"east": {"uv": [4, 4, 6, 6], "rotation": 180, "texture": "#0"},
				"south": {"uv": [4, 4, 6, 6], "rotation": 180, "texture": "#0"},
				"west": {"uv": [4, 4, 6, 6], "rotation": 180, "texture": "#0"},
				"up": {"uv": [5, 5, 7, 7], "rotation": 180, "texture": "#0"},
				"down": {"uv": [5, 5, 7, 7], "rotation": 180, "texture": "#0"}
			}
		},
		{
			"from": [-2, -0.66421, 11.34315],
			"to": [-1, 0.33579, 12.34315],
			"rotation": {"angle": 22.5, "axis": "y", "origin": [-4, 2.33579, -4.65685]},
			"faces": {
				"north": {"uv": [5, 5, 6, 6], "rotation": 180, "texture": "#0"},
				"east": {"uv": [5, 5, 6, 6], "rotation": 180, "texture": "#0"},
				"south": {"uv": [5, 5, 6, 6], "rotation": 180, "texture": "#0"},
				"west": {"uv": [5, 5, 6, 6], "rotation": 180, "texture": "#0"},
				"up": {"uv": [5, 5, 6, 6], "rotation": 180, "texture": "#0"},
				"down": {"uv": [5, 5, 6, 6], "rotation": 180, "texture": "#0"}
			}
		},
		{
			"from": [9.5, -0.66421, 10.84315],
			"to": [10.5, 0.33579, 11.84315],
			"rotation": {"angle": 22.5, "axis": "y", "origin": [11.5, 2.33579, 10.84315]},
			"faces": {
				"north": {"uv": [5, 5, 6, 6], "rotation": 180, "texture": "#0"},
				"east": {"uv": [5, 5, 6, 6], "rotation": 180, "texture": "#0"},
				"south": {"uv": [5, 5, 6, 6], "rotation": 180, "texture": "#0"},
				"west": {"uv": [5, 5, 6, 6], "rotation": 180, "texture": "#0"},
				"up": {"uv": [5, 5, 6, 6], "rotation": 180, "texture": "#0"},
				"down": {"uv": [5, 5, 6, 6], "rotation": 180, "texture": "#0"}
			}
		},
		{
			"from": [6, -1.66421, 5.34315],
			"to": [9, 1.33579, 8.34315],
			"rotation": {"angle": -22.5, "axis": "y", "origin": [7.5, -0.16421, 6.84315]},
			"faces": {
				"north": {"uv": [9, 5, 12, 8], "texture": "#0"},
				"east": {"uv": [9, 5, 12, 8], "texture": "#0"},
				"south": {"uv": [9, 5, 12, 8], "texture": "#0"},
				"west": {"uv": [9, 5, 12, 8], "texture": "#0"},
				"up": {"uv": [9, 5, 12, 8], "texture": "#0"},
				"down": {"uv": [9, 5, 12, 8], "texture": "#0"}
			}
		},
		{
			"from": [11, -1.66421, 9.34315],
			"to": [14, 1.33579, 12.34315],
			"rotation": {"angle": -22.5, "axis": "y", "origin": [12.5, -0.16421, 10.84315]},
			"faces": {
				"north": {"uv": [9, 5, 12, 8], "texture": "#0"},
				"east": {"uv": [9, 5, 12, 8], "texture": "#0"},
				"south": {"uv": [9, 5, 12, 8], "texture": "#0"},
				"west": {"uv": [9, 5, 12, 8], "texture": "#0"},
				"up": {"uv": [9, 5, 12, 8], "texture": "#0"},
				"down": {"uv": [9, 5, 12, 8], "texture": "#0"}
			}
		}
	],
	"groups": [
		{
			"name": "Xion F",
			"origin": [8, -8, 8],
			"children": [0, 1, 2, 3, 4, 5, 6]
		}
	]
}