{
  "values": [
    "tardis:exterior_axillary",
    "tardis:chameleon_exterior_auxillary",
    "tardis:chameleon_exterior",
    "tardis:steam_exterior",
    "tardis:tt_capsule",
    "tardis:police_box",
    "tardis:coffin_exterior",
    "tardis:octa_exterior",
    "tardis:trunk_exterior",
    "tardis:spruce_exterior"
  ]
}