{
  "type": "minecraft:empty",
  "pools": [
    {
      "bonus_rolls": 0.0,
      "entries": [
        {
          "type": "minecraft:item",
          "name": "minecraft:bone",
          "weight": 30
        },
        {
          "type": "minecraft:item",
          "name": "minecraft:lightning_rod",
          "weight": 10
        },
        {
          "type": "minecraft:item",
          "name": "minecraft:soul_sand",
          "weight": 20
        },
        {
          "type": "minecraft:item",
          "name": "minecraft:hopper",
          "weight": 15
        },
        {
          "type": "minecraft:item",
          "name": "tardis:xion_lens",
          "weight": 5
        },
        {
          "type": "minecraft:item",
          "name": "tardis:circuit_plate",
          "weight": 10
        },
        {
          "type": "minecraft:item",
          "name": "minecraft:redstone",
          "weight": 25
        },
        {
          "type": "minecraft:item",
          "name": "minecraft:gunpowder",
          "weight": 20
        },
        {
          "type": "minecraft:item",
          "name": "minecraft:amethyst_shard",
          "weight": 10
        },
        {
          "type": "minecraft:item",
          "name": "minecraft:lever",
          "weight": 30
        },
        {
          "type": "minecraft:tag",
          "expand": true,
          "name": "minecraft:buttons",
          "weight": 40
        },
        {
          "type": "minecraft:item",
          "name": "minecraft:repeater",
          "weight": 10
        },
        {
          "type": "minecraft:item",
          "name": "minecraft:observer",
          "weight": 10
        },
        {
          "type": "minecraft:item",
          "name": "minecraft:comparator",
          "weight": 10
        }
      ],
      "name": "junk",
      "rolls": 4.0
    },
    {
      "bonus_rolls": 0.0,
      "entries": [
        {
          "type": "minecraft:item",
          "name": "minecraft:netherite_scrap",
          "weight": 2
        },
        {
          "type": "minecraft:item",
          "name": "minecraft:copper_ingot",
          "weight": 5
        },
        {
          "type": "minecraft:item",
          "name": "minecraft:iron_ingot",
          "weight": 10
        },
        {
          "type": "minecraft:item",
          "name": "minecraft:ender_pearl",
          "weight": 5
        },
        {
          "type": "minecraft:item",
          "name": "tardis:exo_circuits",
          "weight": 10
        },
        {
          "type": "minecraft:tag",
          "expand": true,
          "name": "tardis:tardis_music_disk"
        }
      ],
      "name": "treasure",
      "rolls": 2.0
    }
  ]
}