{
  "type": "minecraft:crafting_shaped",
  "category": "misc",
  "key": {
    "c": {
      "item": "tardis:xion"
    }
  },
  "pattern": [
    "c c",
    "c c",
    " c "
  ],
  "result": {
    "count": 12,
    "item": "tardis:crystal_vials"
  },
  "show_notification": true
}