{
  "entries": [
    {
      "schematic": {
        "type": "tardis:exterior",
        "location": "tardis:police_box"
      },
      "weight": 100
    },
    {
      "schematic": {
        "type": "minecraft:item",
        "location": "tardis:upgrades/remote_circuit"
      },
      "weight": 20
    },
    {
      "schematic": {
        "type": "minecraft:item",
        "location": "tardis:tools/stattenheim_remote"
      },
      "weight": 20
    }
  ]
}