{
  "type": "tardis:text",
  "chapter": {
    "name": "landing",
    "parent_chapter": "flight",
    "weight": 25
  },
  "text": "To exit the vortex, you must first reduce your throttle to zero, then engage the handbrake. If one were to engage the handbrake while the TARDIS was still throttled up, the ship will violently crash."
}