{
  "type": "tardis:quantiscope/crafting",
  "main_component": {
    "item": "tardis:data_matrix"
  },
  "other_ingredients": [
    {
      "item": "tardis:exo_circuits"
    },
    {
      "tag": "forge:obsidian"
    },
    {
      "item": "tardis:exo_circuits"
    },
    {
      "item": "tardis:exo_circuits"
    },
    {
      "tag": "forge:obsidian"
    }
  ],
  "result": {
    "item": "tardis:components/shield_generator"
  }
}