{
  "type": "tardis:item",
  "chapter": {
    "name": "tools",
    "weight": 100
  },
  "description": "Welding Torch\n\n   Makes two pieces of metal into one piece of metal. You can use this on a Temporal Recipe Design System to craft more advanced items.",
  "item": {
    "Count": 1,
    "id": "tardis:tools/welding_torch"
  }
}