{
  "type": "tardis:quantiscope/crafting",
  "main_component": {
    "item": "tardis:circuit_plate"
  },
  "other_ingredients": [
    {
      "item": "minecraft:gold_nugget"
    },
    {
      "item": "minecraft:gold_nugget"
    },
    {
      "item": "tardis:circuit_plate"
    }
  ],
  "result": {
    "item": "tardis:exo_circuits"
  }
}