{
  "type": "tardis:vortex_phenomena",
  "chapter": {
    "name": "vortex_phenomena",
    "weight": 75
  },
  "text": "A terrible battle locked in time, ships with working antennas and enough maneuverability can take advantage of the carnage and download schematics for use in your timeship. The standard procedure goes as follows. Use your timeship's randomizer to dodge incoming attacks, then your communicator to download any schematics you can find. If one of the participants in the battle should happen to notice you, using your timeship's throttle should be enough to escape them",
  "vortex_phenomenon": "tardis:space_battle"
}