{
  "type": "tardis:quantiscope/crafting",
  "main_component": {
    "item": "tardis:alembic"
  },
  "other_ingredients": [
    {
      "item": "tardis:components/fluid_links"
    },
    {
      "item": "tardis:data_matrix"
    },
    {
      "tag": "forge:glass"
    },
    {
      "tag": "forge:glass"
    },
    {
      "tag": "forge:glass"
    }
  ],
  "result": {
    "item": "tardis:alembic_still"
  }
}