{
  "type": "tardis:like_biome",
  "liked_biome": [
    {
      "tag": "forge:is_cold"
    }
  ],
  "liked_items": [
    {
      "item": {
        "item": "minecraft:ice"
      },
      "loyalty": 10
    },
    {
      "item": {
        "item": "minecraft:blue_ice"
      },
      "loyalty": 20
    },
    {
      "item": {
        "item": "minecraft:packed_ice"
      },
      "loyalty": 20
    },
    {
      "item": {
        "item": "minecraft:snowball"
      },
      "loyalty": 10
    }
  ]
}