{
  "type": "tardis:item",
  "chapter": {
    "name": "upgrades",
    "parent_chapter": "main",
    "weight": 0
  },
  "description": "TARDIS Atrium Upgrade\n\n  Allows you to build a structure in an Atrium Room. This structure will materialize and dematerialize with your time ship's Exo Shell. To activate, use a sonic on the Atrium door frame to assign a name to this structure, which will allow you to set it as active on your monitor.",
  "item": {
    "Count": 1,
    "id": "tardis:upgrades/remote_circuit"
  }
}