{
  "type": "tardis:item",
  "chapter": {
    "name": "upgrades",
    "parent_chapter": "main",
    "weight": 0
  },
  "description": "Nano-gene Carrier Upgrade\n\n  Fills your ship with nano-genes, self replicating nano bots that repair physical damage",
  "item": {
    "Count": 1,
    "id": "tardis:upgrades/remote_circuit"
  }
}