{
  "type": "room",
  "parent": "tardis:rooms/tardis_grid_nouveau",
  "canBeRemoved": true,
  "extra_unlocks": [
    {
      "location": "tardis:neuveau_console",
      "registry": "minecraft:item"
    }
  ],
  "generates_naturally": true,
  "roomLocation": "tardis:rooms/tardis_grid_nouveau_abandoned",
  "y_offset": -5
}