{
	"credit": "Made with Blockbench",
	"texture_size": [32, 32],
	"textures": {
		"0": "tardis:block/machines/ars_panel",
		"particle": "tardis:block/machines/ars_panel"
	},
	"elements": [
		{
			"from": [2, 0, 13],
			"to": [14, 12, 16],
			"rotation": {"angle": 0, "axis": "y", "origin": [2, 0, 13]},
			"faces": {
				"north": {"uv": [0, 0, 6, 6], "texture": "#0"},
				"east": {"uv": [6, 1.5, 12, 3], "texture": "#0"},
				"south": {"uv": [6, 3, 12, 4.5], "texture": "#0"},
				"west": {"uv": [6, 4.5, 12, 6], "texture": "#0"},
				"up": {"uv": [12, 1.5, 6, 0], "texture": "#0"},
				"down": {"uv": [6, 6, 0, 12], "texture": "#0"}
			}
		},
		{
			"from": [2, 0, 12],
			"to": [3, 12, 13],
			"rotation": {"angle": 0, "axis": "y", "origin": [2, 0, 12]},
			"faces": {
				"north": {"uv": [6, 7, 6.5, 7.5], "texture": "#0"},
				"east": {"uv": [6, 6.5, 12, 7], "texture": "#0"},
				"south": {"uv": [6.5, 7, 7, 7.5], "texture": "#0"},
				"west": {"uv": [6, 6, 12, 6.5], "texture": "#0"},
				"up": {"uv": [6, 12, 5.5, 6], "texture": "#0"},
				"down": {"uv": [6, 0, 5.5, 6], "texture": "#0"}
			}
		},
		{
			"from": [13, 0, 12],
			"to": [14, 12, 13],
			"rotation": {"angle": 0, "axis": "y", "origin": [13, 0, 12]},
			"faces": {
				"north": {"uv": [6, 7, 6.5, 7.5], "texture": "#0"},
				"east": {"uv": [6, 6.5, 12, 7], "texture": "#0"},
				"south": {"uv": [6.5, 7, 7, 7.5], "texture": "#0"},
				"west": {"uv": [6, 6, 12, 6.5], "texture": "#0"},
				"up": {"uv": [6, 12, 5.5, 6], "texture": "#0"},
				"down": {"uv": [6, 0, 5.5, 6], "texture": "#0"}
			}
		},
		{
			"from": [3, 11, 12],
			"to": [13, 12, 13],
			"rotation": {"angle": 0, "axis": "y", "origin": [12, 0, 12]},
			"faces": {
				"north": {"uv": [6, 7, 6.5, 7.5], "texture": "#0"},
				"east": {"uv": [6, 6.5, 12, 7], "texture": "#0"},
				"south": {"uv": [6.5, 7, 7, 7.5], "texture": "#0"},
				"west": {"uv": [6, 6, 12, 6.5], "texture": "#0"},
				"up": {"uv": [6, 12, 5.5, 6], "texture": "#0"},
				"down": {"uv": [6, 0, 5.5, 6], "texture": "#0"}
			}
		},
		{
			"from": [3, 0, 12],
			"to": [13, 1, 13],
			"rotation": {"angle": 0, "axis": "y", "origin": [12, -11, 12]},
			"faces": {
				"north": {"uv": [6, 7, 6.5, 7.5], "texture": "#0"},
				"east": {"uv": [6, 6.5, 12, 7], "texture": "#0"},
				"south": {"uv": [6.5, 7, 7, 7.5], "texture": "#0"},
				"west": {"uv": [6, 6, 12, 6.5], "texture": "#0"},
				"up": {"uv": [6, 12, 5.5, 6], "texture": "#0"},
				"down": {"uv": [6, 0, 5.5, 6], "texture": "#0"}
			}
		},
		{
			"from": [7, 6, 12.75],
			"to": [8, 10, 13.75],
			"rotation": {"angle": 0, "axis": "y", "origin": [7, 6, 12.75]},
			"faces": {
				"north": {"uv": [12, 0.5, 12.5, 1], "texture": "#0"},
				"east": {"uv": [12, 0, 14, 0.5], "texture": "#0"},
				"south": {"uv": [12.5, 0.5, 13, 1], "texture": "#0"},
				"west": {"uv": [14, 0, 16, 0.5], "texture": "#0"},
				"up": {"uv": [12.5, 2.5, 12, 0.5], "texture": "#0"},
				"down": {"uv": [13, 0.5, 12.5, 2.5], "texture": "#0"}
			}
		},
		{
			"from": [9, 6, 12.75],
			"to": [10, 10, 13.75],
			"rotation": {"angle": 0, "axis": "y", "origin": [9, 6, 12.75]},
			"faces": {
				"north": {"uv": [12, 0.5, 12.5, 1], "texture": "#0"},
				"east": {"uv": [12, 0, 14, 0.5], "texture": "#0"},
				"south": {"uv": [12.5, 0.5, 13, 1], "texture": "#0"},
				"west": {"uv": [14, 0, 16, 0.5], "texture": "#0"},
				"up": {"uv": [12.5, 2.5, 12, 0.5], "texture": "#0"},
				"down": {"uv": [13, 0.5, 12.5, 2.5], "texture": "#0"}
			}
		},
		{
			"from": [11, 6, 12.75],
			"to": [12, 10, 13.75],
			"rotation": {"angle": 0, "axis": "y", "origin": [11, 6, 12.75]},
			"faces": {
				"north": {"uv": [12, 0.5, 12.5, 1], "texture": "#0"},
				"east": {"uv": [12, 0, 14, 0.5], "texture": "#0"},
				"south": {"uv": [12.5, 0.5, 13, 1], "texture": "#0"},
				"west": {"uv": [14, 0, 16, 0.5], "texture": "#0"},
				"up": {"uv": [12.5, 2.5, 12, 0.5], "texture": "#0"},
				"down": {"uv": [13, 0.5, 12.5, 2.5], "texture": "#0"}
			}
		},
		{
			"from": [4, 8.9, 12.75],
			"to": [5, 9.9, 13.75],
			"rotation": {"angle": 0, "axis": "y", "origin": [4, 8.9, 12.75]},
			"faces": {
				"north": {"uv": [13.5, 1.5, 14, 2], "texture": "#0"},
				"east": {"uv": [13.5, 1, 14, 1.5], "texture": "#0"},
				"south": {"uv": [14, 1, 14.5, 1.5], "texture": "#0"},
				"west": {"uv": [14, 1.5, 14.5, 2], "texture": "#0"},
				"up": {"uv": [14, 2, 13.5, 1.5], "texture": "#0"},
				"down": {"uv": [14.5, 1, 14, 1.5], "texture": "#0"}
			}
		},
		{
			"from": [4, 6.9, 12.75],
			"to": [5, 7.9, 13.75],
			"rotation": {"angle": 0, "axis": "y", "origin": [4, 6.9, 12.75]},
			"faces": {
				"north": {"uv": [13.5, 1.5, 14, 2], "texture": "#0"},
				"east": {"uv": [13.5, 1, 14, 1.5], "texture": "#0"},
				"south": {"uv": [14, 1, 14.5, 1.5], "texture": "#0"},
				"west": {"uv": [14, 1.5, 14.5, 2], "texture": "#0"},
				"up": {"uv": [14, 2, 13.5, 1.5], "texture": "#0"},
				"down": {"uv": [14.5, 1, 14, 1.5], "texture": "#0"}
			}
		}
	],
	"display": {
		"thirdperson_righthand": {
			"rotation": [75, 45, 0],
			"translation": [0, 2.5, 0],
			"scale": [0.375, 0.375, 0.375]
		},
		"thirdperson_lefthand": {
			"rotation": [75, 45, 0],
			"translation": [0, 2.5, 0],
			"scale": [0.375, 0.375, 0.375]
		},
		"firstperson_righthand": {
			"rotation": [0, 45, 0],
			"scale": [0.4, 0.4, 0.4]
		},
		"firstperson_lefthand": {
			"rotation": [0, 225, 0],
			"scale": [0.4, 0.4, 0.4]
		},
		"ground": {
			"translation": [0, 3, 0],
			"scale": [0.25, 0.25, 0.25]
		},
		"gui": {
			"rotation": [30, 225, 0],
			"translation": [3, -0.5, 0],
			"scale": [0.625, 0.625, 0.625]
		},
		"head": {
			"translation": [0, 2, -14.25]
		},
		"fixed": {
			"translation": [0, 0, -2.75],
			"scale": [0.5, 0.5, 0.5]
		}
	}
}