{
	"credit": "Made with Blockbench",
	"texture_size": [128, 128],
	"textures": {
		"0": "tardis:block/machines/rec_unit_grey",
		"particle": "tardis:block/machines/rec_unit_grey"
	},
	"elements": [
		{
			"from": [2, 9, 1],
			"to": [14, 16, 16],
			"faces": {
				"north": {"uv": [4.25, 2, 5.75, 2.875], "texture": "#0"},
				"east": {"uv": [2.375, 2, 4.25, 2.875], "texture": "#0"},
				"south": {"uv": [7.625, 2, 9.125, 2.875], "texture": "#0"},
				"west": {"uv": [5.75, 2, 7.625, 2.875], "texture": "#0"},
				"up": {"uv": [5.75, 2, 4.25, 0.125], "texture": "#0"},
				"down": {"uv": [7.25, 0.125, 5.75, 2], "texture": "#0"}
			}
		},
		{
			"from": [2, 1, 5],
			"to": [14, 9, 16],
			"faces": {
				"north": {"uv": [4.75, 5.375, 6.25, 6.375], "texture": "#0"},
				"east": {"uv": [3.375, 5.375, 4.75, 6.375], "texture": "#0"},
				"south": {"uv": [7.625, 5.375, 9.125, 6.375], "texture": "#0"},
				"west": {"uv": [6.25, 5.375, 7.625, 6.375], "texture": "#0"},
				"up": {"uv": [6.25, 5.375, 4.75, 4], "texture": "#0"},
				"down": {"uv": [7.75, 4, 6.25, 5.375], "texture": "#0"}
			}
		},
		{
			"from": [0, 1, 4],
			"to": [2, 16, 14],
			"faces": {
				"north": {"uv": [9.25, 3.125, 9.5, 5], "texture": "#0"},
				"east": {"uv": [8, 3.125, 9.25, 5], "texture": "#0"},
				"south": {"uv": [10.75, 3.125, 11, 5], "texture": "#0"},
				"west": {"uv": [9.5, 3.125, 10.75, 5], "texture": "#0"},
				"up": {"uv": [9.5, 3.125, 9.25, 1.875], "texture": "#0"},
				"down": {"uv": [9.75, 1.875, 9.5, 3.125], "texture": "#0"}
			}
		},
		{
			"from": [14, 1, 4],
			"to": [16, 16, 14],
			"faces": {
				"north": {"uv": [12.25, 3.125, 12.5, 5], "texture": "#0"},
				"east": {"uv": [11, 3.125, 12.25, 5], "texture": "#0"},
				"south": {"uv": [13.75, 3.125, 14, 5], "texture": "#0"},
				"west": {"uv": [12.5, 3.125, 13.75, 5], "texture": "#0"},
				"up": {"uv": [12.5, 3.125, 12.25, 1.875], "texture": "#0"},
				"down": {"uv": [12.75, 1.875, 12.5, 3.125], "texture": "#0"}
			}
		},
		{
			"from": [0, 0, 0],
			"to": [16, 1, 16],
			"faces": {
				"north": {"uv": [2.125, 8.5, 4.125, 8.625], "texture": "#0"},
				"east": {"uv": [0.125, 8.5, 2.125, 8.625], "texture": "#0"},
				"south": {"uv": [6.125, 8.5, 8.125, 8.625], "texture": "#0"},
				"west": {"uv": [4.125, 8.5, 6.125, 8.625], "texture": "#0"},
				"up": {"uv": [4.125, 8.5, 2.125, 6.5], "texture": "#0"},
				"down": {"uv": [6.125, 6.5, 4.125, 8.5], "texture": "#0"}
			}
		},
		{
			"from": [3, 15.29289, 8.29289],
			"to": [13, 25.29289, 16.29289],
			"rotation": {"angle": 45, "axis": "x", "origin": [6, 21, 4.92893]},
			"faces": {
				"north": {"uv": [1.125, 4, 2.375, 5.25], "texture": "#0"},
				"east": {"uv": [0.125, 4, 1.125, 5.25], "texture": "#0"},
				"south": {"uv": [3.375, 4, 4.625, 5.25], "texture": "#0"},
				"west": {"uv": [2.375, 4, 3.375, 5.25], "texture": "#0"},
				"up": {"uv": [2.375, 4, 1.125, 3], "texture": "#0"},
				"down": {"uv": [3.625, 3, 2.375, 4], "texture": "#0"}
			}
		},
		{
			"from": [1, 15.29289, 6.29289],
			"to": [15, 26.29289, 8.29289],
			"rotation": {"angle": 45, "axis": "x", "origin": [6, 21, 4.92893]},
			"faces": {
				"north": {"uv": [0.375, 0.5, 2.125, 1.875], "texture": "#0"},
				"east": {"uv": [0.125, 0.5, 0.375, 1.875], "texture": "#0"},
				"south": {"uv": [2.375, 0.5, 4.125, 1.875], "texture": "#0"},
				"west": {"uv": [2.125, 0.5, 2.375, 1.875], "texture": "#0"},
				"up": {"uv": [2.125, 0.5, 0.375, 0.25], "texture": "#0"},
				"down": {"uv": [3.875, 0.25, 2.125, 0.5], "texture": "#0"}
			}
		}
	],
	"display": {
		"thirdperson_righthand": {
			"rotation": [75, 45, 0],
			"translation": [0, 2.5, 0],
			"scale": [0.375, 0.375, 0.375]
		},
		"thirdperson_lefthand": {
			"rotation": [75, 45, 0],
			"translation": [0, 2.5, 0],
			"scale": [0.375, 0.375, 0.375]
		},
		"firstperson_righthand": {
			"rotation": [0, 45, 0],
			"translation": [2.75, 0, 0],
			"scale": [0.4, 0.4, 0.4]
		},
		"firstperson_lefthand": {
			"rotation": [0, 45, 0],
			"translation": [2.75, 0, 0],
			"scale": [0.4, 0.4, 0.4]
		},
		"ground": {
			"translation": [0, 3, 0],
			"scale": [0.25, 0.25, 0.25]
		},
		"gui": {
			"rotation": [30, 145, 0],
			"translation": [0, -1.5, 0],
			"scale": [0.5, 0.5, 0.5]
		},
		"head": {
			"translation": [0, 1, 0]
		},
		"fixed": {
			"translation": [0, -1.5, -1],
			"scale": [0.5, 0.5, 0.5]
		}
	}
}