{
  "variants": {
    "facing=east,top=false": {
      "model": "tardis:block/machines/waypoint_bank",
      "y": 90
    },
    "facing=east,top=true": {
      "model": "minecraft:item/generated",
      "y": 90
    },
    "facing=north,top=false": {
      "model": "tardis:block/machines/waypoint_bank"
    },
    "facing=north,top=true": {
      "model": "minecraft:item/generated"
    },
    "facing=south,top=false": {
      "model": "tardis:block/machines/waypoint_bank",
      "y": 180
    },
    "facing=south,top=true": {
      "model": "minecraft:item/generated",
      "y": 180
    },
    "facing=west,top=false": {
      "model": "tardis:block/machines/waypoint_bank",
      "y": 270
    },
    "facing=west,top=true": {
      "model": "minecraft:item/generated",
      "y": 270
    }
  }
}