{
  "parent": "minecraft:block/cube_column",
  "textures": {
    "end": "tardis:block/decoration/alabaster/alabaster",
    "side": "tardis:block/decoration/alabaster/alabaster_blue_runner_lights"
  }
}