{
  "parent": "minecraft:recipes/root",
  "criteria": {
    "has": {
      "conditions": {
        "items": [
          {
            "items": [
              "tardis:circuit_plate"
            ]
          }
        ]
      },
      "trigger": "minecraft:inventory_changed"
    },
    "has_recipe": {
      "conditions": {
        "recipe": "tardis:quantiscope/crafting/exocircuits"
      },
      "trigger": "minecraft:recipe_unlocked"
    }
  },
  "requirements": [
    [
      "has",
      "has_recipe"
    ]
  ],
  "rewards": {
    "recipes": [
      "tardis:quantiscope/crafting/exocircuits"
    ]
  }
}