{
  "type": "tardis:text",
  "chapter": {
    "name": "sonic_functions",
    "parent_chapter": "sonic",
    "weight": 0
  },
  "text": "Block Interaction.\n\nThe main usage of this tool, this mode will interface with physical machines in the world. This will be able to override certain functions that would otherwise be unable to be accessed. If no specific override is present, it will allow you to use the machine long range instead."
}