{
  "variants": {
    "type=bottom,waterlogged=false": {
      "model": "tardis:block/decoration/coral_slab"
    },
    "type=bottom,waterlogged=true": {
      "model": "tardis:block/decoration/coral_slab"
    },
    "type=double,waterlogged=false": {
      "model": "tardis:block/decoration/coral_slab_double"
    },
    "type=double,waterlogged=true": {
      "model": "tardis:block/decoration/coral_slab_double"
    },
    "type=top,waterlogged=false": {
      "model": "tardis:block/decoration/coral_slab_top"
    },
    "type=top,waterlogged=true": {
      "model": "tardis:block/decoration/coral_slab_top"
    }
  }
}