{
  "multipart": [
    {
      "apply": {
        "model": "tardis:block/decoration/coral_wall_post",
        "uvlock": true
      },
      "when": {
        "up": "true"
      }
    },
    {
      "apply": {
        "model": "tardis:block/decoration/coral_wall_side",
        "uvlock": true,
        "y": 90
      },
      "when": {
        "east": "low"
      }
    },
    {
      "apply": {
        "model": "tardis:block/decoration/coral_wall_tall",
        "uvlock": true,
        "y": 90
      },
      "when": {
        "east": "tall"
      }
    },
    {
      "apply": {
        "model": "tardis:block/decoration/coral_wall_side",
        "uvlock": true
      },
      "when": {
        "north": "low"
      }
    },
    {
      "apply": {
        "model": "tardis:block/decoration/coral_wall_tall",
        "uvlock": true
      },
      "when": {
        "north": "tall"
      }
    },
    {
      "apply": {
        "model": "tardis:block/decoration/coral_wall_side",
        "uvlock": true,
        "y": -180
      },
      "when": {
        "south": "low"
      }
    },
    {
      "apply": {
        "model": "tardis:block/decoration/coral_wall_tall",
        "uvlock": true,
        "y": -180
      },
      "when": {
        "south": "tall"
      }
    },
    {
      "apply": {
        "model": "tardis:block/decoration/coral_wall_side",
        "uvlock": true,
        "y": -90
      },
      "when": {
        "west": "low"
      }
    },
    {
      "apply": {
        "model": "tardis:block/decoration/coral_wall_tall",
        "uvlock": true,
        "y": -90
      },
      "when": {
        "west": "tall"
      }
    }
  ]
}