{
  "parent": "minecraft:block/inner_stairs",
  "textures": {
    "bottom": "tardis:block/decoration/tardis_coral_block",
    "side": "tardis:block/decoration/tardis_coral_block",
    "top": "tardis:block/decoration/tardis_coral_block"
  }
}