{
	"model": "tardis:item/sonic_parts/mk1_activator",
	"part_slot" : "activator",
	"connection_points": {
		"emitter" : [ 0.5, 0.06874999999999999, 0.30625 ], 
		"handle" : [ 0.5, 0.0625, 0.6875 ]
	}
}