{
  "type": "tardis:quantiscope/crafting",
  "main_component": {
    "item": "tardis:data_matrix"
  },
  "other_ingredients": [
    {
      "item": "tardis:exo_circuits"
    },
    {
      "item": "tardis:exo_circuits"
    },
    {
      "item": "tardis:components/fluid_links"
    },
    {
      "item": "tardis:exo_circuits"
    },
    {
      "item": "tardis:exo_circuits"
    }
  ],
  "result": {
    "item": "tardis:tools/diagnostic_tool"
  }
}